Datos espaciales con R
…
# Cargar datos
## Poligonos
*provincias <- read_sf("data/provincias/provincias.shp")
provincias
```

```
## Simple feature collection with 123 features and 5 fields
## geometry type:  MULTIPOLYGON
## dimension:      XY
## bbox:           xmin: -69.64483 ymin: -22.90657 xmax: -57.45443 ymax: -9.669633
## geographic CRS: WGS 84
## # A tibble: 123 x 6
##    gml_id   COD_DEP NOM_DEP COD_PROV NOM_PROV                           geometry
##    <chr>    <chr>   <chr>   <chr>    <chr>                    <MULTIPOLYGON [°]>
##  1 provinc~ <NA>    Potosi  14       Daniel C~ (((-67.77305 -19.95029, -67.7731~
##  2 provinc~ 0       LAGO    <NA>     Lago Poo~ (((-67.06019 -18.44845, -67.0602~
##  3 provinc~ 0       LAGO    <NA>     Lago Tit~ (((-69.32165 -15.54775, -69.3212~
##  4 provinc~ 0       LAGO    <NA>     Lago Uru~ (((-67.10087 -18.02564, -67.1007~
##  5 provinc~ 0       SALAR   <NA>     Salar de~ (((-67.98348 -19.03682, -67.9834~
##  6 provinc~ 0       SALAR   0        Salar de~ (((-67.48285 -19.53102, -67.4830~
##  7 provinc~ 01      Chuqui~ 07       Nor Cinti (((-64.71348 -19.7808, -64.71298~
##  8 provinc~ 01      Chuqui~ 09       Sud Cinti (((-64.26963 -20.52255, -64.2672~
##  9 provinc~ 02      La Paz  02       Omasuyos  (((-68.53956 -16.10705, -68.5297~
## 10 provinc~ 02      La Paz  12       Los Andes (((-68.39181 -16.01124, -68.3901~
## # ... with 113 more rows
```
…
```r
## Puntos
*aeropuetos <- read_sf("data/aero1/aero1.shp")
aeropuetos
```

```
## Simple feature collection with 33 features and 4 fields
## geometry type:  POINT
## dimension:      XY
## bbox:           xmin: -69.40331 ymin: -22.6977 xmax: -57.84501 ymax: -10.82314
## geographic CRS: WGS 84
## # A tibble: 33 x 5
##    gml_id      ID AERO_INTER AEROPUERTO                                geometry
##    <chr>    <dbl> <chr>      <chr>                                  <POINT [°]>
##  1 aero1.1      0 INTER      VIRU VIRU                    (-63.10903 -17.80115)
##  2 aero1.2      0 NAL        ROBORE                       (-59.69179 -18.31267)
##  3 aero1.3      0 NAL        SALVADOR OGAYA (Pto. Suarez) (-57.84501 -18.93599)
##  4 aero1.4      0 NAL        YACUIBA                      (-63.63405 -21.97789)
##  5 aero1.5      0 NAL        CAMIRI                       (-63.46358 -20.04498)
##  6 aero1.6      0 INTER      JORGE WILSTERMAN             (-66.12517 -17.40998)
##  7 aero1.7      0 INTER      J. .F. KENNEDY               (-68.22983 -16.51672)
##  8 aero1.8      0 NAL        <NA>                         (-68.09211 -13.74058)
##  9 aero1.9      0 NAL        RURRENABAQUE                 (-67.44159 -14.43207)
## 10 aero1.10     0 NAL        APOLO                          (-68.38563 -14.712)
## # ... with 23 more rows
```
…
